Lab3/sim/fir.vcd
$date
   Sat Oct 12 20:59:32 2024
$end
$version
  2022.1
$end
$timescale
  1ps
$end
$scope module fir_tb $end
$var wire 1 ! awready $end
$var wire 1 " wready $end
$var reg 1 # awvalid $end
$var reg 12 $ awaddr [11:0] $end
$var reg 1 % wvalid $end
$var reg 32 & wdata [31:0] $end
$var wire 1 ' arready $end
$var reg 1 ( rready $end
$var reg 1 ) arvalid $end
$var reg 12 * araddr [11:0] $end
$var wire 1 + rvalid $end
$var wire 32 , rdata [31:0] $end
$var reg 1 - ss_tvalid $end
$var reg 32 . ss_tdata [31:0] $end
$var reg 1 / ss_tlast $end
$var wire 1 0 ss_tready $end
$var reg 1 1 sm_tready $end
$var wire 1 2 sm_tvalid $end
$var wire 32 3 sm_tdata [31:0] $end
$var wire 1 4 sm_tlast $end
$var reg 1 5 axis_clk $end
$var reg 1 6 axis_rst_n $end
$var wire 4 7 tap_WE [3:0] $end
$var wire 1 8 tap_EN $end
$var wire 32 9 tap_Di [31:0] $end
$var wire 12 : tap_A [11:0] $end
$var wire 32 ; tap_Do [31:0] $end
$var wire 4 < data_WE [3:0] $end
$var wire 1 = data_EN $end
$var wire 32 > data_Di [31:0] $end
$var wire 12 ? data_A [11:0] $end
$var wire 32 @ data_Do [31:0] $end
$var reg 32 A data_length [31:0] $end
$var integer 32 B Din [31:0] $end
$var integer 32 C golden [31:0] $end
$var integer 32 D input_data [31:0] $end
$var integer 32 E golden_data [31:0] $end
$var integer 32 F m [31:0] $end
$var integer 32 G i [31:0] $end
$var integer 32 H k [31:0] $end
$var reg 1 I error $end
$var reg 1 J error_coef $end
$var integer 32 K timeout [31:0] $end
$scope module fir_DUT $end
$var wire 1 ! awready $end
$var wire 1 " wready $end
$var wire 1 L awvalid $end
$var wire 12 M awaddr [11:0] $end
$var wire 1 N wvalid $end
$var wire 32 O wdata [31:0] $end
$var wire 1 ' arready $end
$var wire 1 P rready $end
$var wire 1 Q arvalid $end
$var wire 12 R araddr [11:0] $end
$var wire 1 + rvalid $end
$var wire 32 , rdata [31:0] $end
$var wire 1 S ss_tvalid $end
$var wire 32 T ss_tdata [31:0] $end
$var wire 1 U ss_tlast $end
$var wire 1 0 ss_tready $end
$var wire 1 V sm_tready $end
$var wire 1 2 sm_tvalid $end
$var wire 32 3 sm_tdata [31:0] $end
$var wire 1 4 sm_tlast $end
$var wire 4 7 tap_WE [3:0] $end
$var wire 1 8 tap_EN $end
$var wire 32 9 tap_Di [31:0] $end
$var wire 12 : tap_A [11:0] $end
$var wire 32 ; tap_Do [31:0] $end
$var wire 4 < data_WE [3:0] $end
$var wire 1 = data_EN $end
$var wire 32 > data_Di [31:0] $end
$var wire 12 ? data_A [11:0] $end
$var wire 32 @ data_Do [31:0] $end
$var wire 1 W axis_clk $end
$var wire 1 X axis_rst_n $end
$var reg 2 Y axis_state_r [1:0] $end
$var reg 2 Z axis_state_w [1:0] $end
$var reg 2 [ axil_state_r [1:0] $end
$var reg 2 \ axil_state_w [1:0] $end
$var reg 3 ] ap_config_reg_r [2:0] $end
$var reg 3 ^ ap_config_reg_w [2:0] $end
$var reg 10 _ data_length_r [9:0] $end
$var reg 10 ` data_length_w [9:0] $end
$var reg 4 a fir_count_r [3:0] $end
$var reg 4 b fir_count_w [3:0] $end
$var reg 4 c write_pointer_r [3:0] $end
$var reg 4 d write_pointer_w [3:0] $end
$var reg 4 e read_pointer_r [3:0] $end
$var reg 4 f read_pointer_w [3:0] $end
$var reg 32 g accumulation_r [31:0] $end
$var reg 32 h accumulation_w [31:0] $end
$var reg 1 i last_input_r $end
$var reg 1 j last_input_w $end
$var reg 4 k rst_data_count_r [3:0] $end
$var reg 4 l rst_data_count_w [3:0] $end
$upscope $end
$scope module tap_RAM $end
$var wire 1 m CLK $end
$var wire 4 7 WE [3:0] $end
$var wire 1 8 EN $end
$var wire 32 9 Di [31:0] $end
$var wire 32 ; Do [31:0] $end
$var wire 12 : A [11:0] $end
$var reg 12 n r_A [11:0] $end
$upscope $end
$scope module data_RAM $end
$var wire 1 o CLK $end
$var wire 4 < WE [3:0] $end
$var wire 1 = EN $end
$var wire 32 > Di [31:0] $end
$var wire 32 @ Do [31:0] $end
$var wire 12 ? A [11:0] $end
$var reg 12 p r_A [11:0] $end
$upscope $end
$scope task sm $end
$var reg 32 q in2 [31:0] $end
$var reg 32 r pcnt [31:0] $end
$upscope $end
$scope task config_write1 $end
$var reg 12 s addr [11:0] $end
$var reg 32 t data [31:0] $end
$upscope $end
$scope task config_write2 $end
$var reg 12 u addr [11:0] $end
$var reg 32 v data [31:0] $end
$upscope $end
$scope task config_read_check $end
$var reg 12 w addr [11:0] $end
$var reg 32 x exp_data [31:0] $end
$var reg 32 y mask [31:0] $end
$upscope $end
$scope task ss $end
$var reg 32 z in1 [31:0] $end
$upscope $end
$upscope $end
$enddefinitions $end
#0
$dumpvars
0!
0"
0#
bx $
0%
bx &
0'
x(
0)
bx *
0+
b0 ,
1-
b1 .
0/
00
11
02
b0 3
04
05
06
b0 7
18
bx 9
b0 :
bx ;
b1111 <
1=
b0 >
b0 ?
bx @
b1001011000 A
b11111111111111111011000111100000 B
b11111111111111111011000111100001 C
b1 D
b1 E
b1001011000 F
b0 G
bx H
0I
0J
b10011100010000000 K
0L
bx M
0N
bx O
xP
0Q
bx R
1S
b1 T
0U
1V
0W
0X
b0 Y
b0 Z
b0 [
b0 \
b100 ]
b100 ^
b0 _
b0 `
b0 a
b0 b
b0 c
b0 d
b0 e
b0 f
b0 g
b0 h
0i
0j
b0 k
b0 l
0m
bx n
0o
bx p
bx q
bx r
bx s
bx t
b10000 u
b1001011000 v
bx w
bx x
bx y
b1 z
$end
#5000
1#
b10000 $
15
b0 7
b0 :
bx ;
b0 @
b10011100001111111 K
1L
b10000 M
1W
b0 Y
b0 [
b0 \
b100 ]
b100 ^
b0 _
b0 `
b0 a
b0 c
b0 e
b0 g
b0 h
0i
b0 k
1m
b0 n
1o
b0 p
#10000
05
0W
0m
0o
#15000
1%
b1001011000 &
15
16
b1001011000 9
b10011100001111110 K
1N
b1001011000 O
1W
1X
b0 Y
b0 [
b1 \
b100 ]
b100 ^
b0 _
b0 `
b0 a
b0 c
b0 e
b0 g
0i
b0 k
1m
b0 n
1o
b0 p
#20000
05
0W
0m
0o
#25000
1!
1"
0'
0+
b0 ,
15
b0 7
b111111110000 :
b10011100001111101 K
1W
b0 Y
b1 [
b0 \
b100 ]
b100 ^
b0 _
b1001011000 `
b0 a
b0 c
b0 e
b0 g
0i
b0 k
1m
b0 n
1o
b0 p
#30000
05
0W
0m
0o
#35000
0!
0"
0#
0%
0'
0+
b0 ,
15
b0 7
b0 :
bx ;
b0 H
b10011100001111100 K
0L
0N
1W
b0 Y
b0 [
b0 \
b100 ]
b100 ^
b1001011000 _
b1001011000 `
b0 a
b0 c
b0 e
b0 g
0i
b0 k
1m
b111111110000 n
1o
b0 p
b100000 s
b0 t
#40000
05
0W
0m
0o
#45000
1#
b100000 $
1%
b0 &
15
b0 7
b0 9
b0 :
bx ;
b10011100001111011 K
1L
b100000 M
1N
b0 O
1W
b0 Y
b0 [
b1 \
b100 ]
b100 ^
b1001011000 _
b1001011000 `
b0 a
b0 c
b0 e
b0 g
0i
b0 k
1m
b0 n
1o
b0 p
#50000
05
0W
0m
0o
#55000
1!
1"
0'
0+
b0 ,
15
b1111 7
b0 :
b10011100001111010 K
1W
b0 Y
b1 [
b0 \
b100 ]
b100 ^
b1001011000 _
b1001011000 `
b0 a
b0 c
b0 e
b0 g
0i
b0 k
1m
b0 n
1o
b0 p
#60000
05
0W
0m
0o
#65000
0!
0"
0#
0%
0'
0+
b0 ,
15
b0 7
b0 :
b0 ;
b1 H
b10011100001111001 K
0L
0N
1W
b0 Y
b0 [
b0 \
b100 ]
b100 ^
b1001011000 _
b1001011000 `
b0 a
b0 c
b0 e
b0 g
b0 h
0i
b0 k
1m
b0 n
1o
b0 p
b100100 u
b11111111111111111111111111110110 v
#70000
05
0W
0m
0o
#75000
1#
b100100 $
15
b0 7
b0 :
b10011100001111000 K
1L
b100100 M
1W
b0 Y
b0 [
b0 \
b100 ]
b100 ^
b1001011000 _
b1001011000 `
b0 a
b0 c
b0 e
b0 g
0i
b0 k
1m
b0 n
1o
b0 p
#80000
05
0W
0m
0o
#85000
1%
b11111111111111111111111111110110 &
15
b11111111111111111111111111110110 9
b10011100001110111 K
1N
b11111111111111111111111111110110 O
1W
b0 Y
b0 [
b1 \
b100 ]
b100 ^
b1001011000 _
b1001011000 `
b0 a
b0 c
b0 e
b0 g
0i
b0 k
1m
b0 n
1o
b0 p
#90000
05
0W
0m
0o
#95000
1!
1"
0'
0+
b0 ,
15
b1111 7
b100 :
b10011100001110110 K
1W
b0 Y
b1 [
b0 \
b100 ]
b100 ^
b1001011000 _
b1001011000 `
b0 a
b0 c
b0 e
b0 g
0i
b0 k
1m
b0 n
1o
b0 p
#100000
05
0W
0m
0o
#105000
0!
0"
0#
0%
0'
0+
b0 ,
15
b0 7
b0 :
b11111111111111111111111111110110 ;
b10 H
b10011100001110101 K
0L
0N
1W
b0 Y
b0 [
b0 \
b100 ]
b100 ^
b1001011000 _
b1001011000 `
b0 a
b0 c
b0 e
b0 g
b0 h
0i
b0 k
1m
b100 n
1o
b0 p
b101000 s
b11111111111111111111111111110111 t
#110000
05
0W
0m
0o
#115000
1#
b101000 $
1%
b11111111111111111111111111110111 &
b0 ,
15
b0 7
b11111111111111111111111111110111 9
b0 :
b0 ;
b10011100001110100 K
1L
b101000 M
1N
b11111111111111111111111111110111 O
1W
b0 Y
b0 [
b1 \
b100 ]
b100 ^
b1001011000 _
b1001011000 `
b0 a
b0 c
b0 e
b0 g
b0 h
0i
b0 k
1m
b0 n
1o
b0 p
#120000
05
0W
0m
0o
#125000
1!
1"
0'
0+
b0 ,
15
b1111 7
b1000 :
b10011100001110011 K
1W
b0 Y
b1 [
b0 \
b100 ]
b100 ^
b1001011000 _
b1001011000 `
b0 a
b0 c
b0 e
b0 g
0i
b0 k
1m
b0 n
1o
b0 p
#130000
05
0W
0m
0o
#135000
0!
0"
0#
0%
0'
0+
b0 ,
15
b0 7
b0 :
b11111111111111111111111111110111 ;
b11 H
b10011100001110010 K
0L
0N
1W
b0 Y
b0 [
b0 \
b100 ]
b100 ^
b1001011000 _
b1001011000 `
b0 a
b0 c
b0 e
b0 g
b0 h
0i
b0 k
1m
b1000 n
1o
b0 p
b101100 u
b10111 v
#140000
05
0W
0m
0o
#145000
1#
b101100 $
b0 ,
15
b0 7
b0 :
b0 ;
b10011100001110001 K
1L
b101100 M
1W
b0 Y
b0 [
b0 \
b100 ]
b100 ^
b1001011000 _
b1001011000 `
b0 a
b0 c
b0 e
b0 g
b0 h
0i
b0 k
1m
b0 n
1o
b0 p
#150000
05
0W
0m
0o
#155000
1%
b10111 &
15
b10111 9
b10011100001110000 K
1N
b10111 O
1W
b0 Y
b0 [
b1 \
b100 ]
b100 ^
b1001011000 _
b1001011000 `
b0 a
b0 c
b0 e
b0 g
0i
b0 k
1m
b0 n
1o
b0 p
#160000
05
0W
0m
0o
#165000
1!
1"
0'
0+
b0 ,
15
b1111 7
b1100 :
b10011100001101111 K
1W
b0 Y
b1 [
b0 \
b100 ]
b100 ^
b1001011000 _
b1001011000 `
b0 a
b0 c
b0 e
b0 g
0i
b0 k
1m
b0 n
1o
b0 p
#170000
05
0W
0m
0o
#175000
0!
0"
0#
0%
0'
0+
b0 ,
15
b0 7
b0 :
b10111 ;
b100 H
b10011100001101110 K
0L
0N
1W
b0 Y
b0 [
b0 \
b100 ]
b100 ^
b1001011000 _
b1001011000 `
b0 a
b0 c
b0 e
b0 g
b0 h
0i
b0 k
1m
b1100 n
1o
b0 p
b110000 s
b111000 t
#180000
05
0W
0m
0o
#185000
1#
b110000 $
1%
b111000 &
b0 ,
15
b0 7
b111000 9
b0 :
b0 ;
b10011100001101101 K
1L
b110000 M
1N
b111000 O
1W
b0 Y
b0 [
b1 \
b100 ]
b100 ^
b1001011000 _
b1001011000 `
b0 a
b0 c
b0 e
b0 g
b0 h
0i
b0 k
1m
b0 n
1o
b0 p
#190000
05
0W
0m
0o
#195000
1!
1"
0'
0+
b0 ,
15
b1111 7
b10000 :
b10011100001101100 K
1W
b0 Y
b1 [
b0 \
b100 ]
b100 ^
b1001011000 _
b1001011000 `
b0 a
b0 c
b0 e
b0 g
0i
b0 k
1m
b0 n
1o
b0 p
#200000
05
0W
0m
0o
#205000
0!
0"
0#
0%
0'
0+
b0 ,
15
b0 7
b0 :
b111000 ;
b101 H
b10011100001101011 K
0L
0N
1W
b0 Y
b0 [
b0 \
b100 ]
b100 ^
b1001011000 _
b1001011000 `
b0 a
b0 c
b0 e
b0 g
b0 h
0i
b0 k
1m
b10000 n
1o
b0 p
b110100 u
b111111 v
#210000
05
0W
0m
0o
#215000
1#
b110100 $
b0 ,
15
b0 7
b0 :
b0 ;
b10011100001101010 K
1L
b110100 M
1W
b0 Y
b0 [
b0 \
b100 ]
b100 ^
b1001011000 _
b1001011000 `
b0 a
b0 c
b0 e
b0 g
b0 h
0i
b0 k
1m
b0 n
1o
b0 p
#220000
05
0W
0m
0o
#225000
1%
b111111 &
15
b111111 9
b10011100001101001 K
1N
b111111 O
1W
b0 Y
b0 [
b1 \
b100 ]
b100 ^
b1001011000 _
b1001011000 `
b0 a
b0 c
b0 e
b0 g
0i
b0 k
1m
b0 n
1o
b0 p
#230000
05
0W
0m
0o
#235000
1!
1"
0'
0+
b0 ,
15
b1111 7
b10100 :
b10011100001101000 K
1W
b0 Y
b1 [
b0 \
b100 ]
b100 ^
b1001011000 _
b1001011000 `
b0 a
b0 c
b0 e
b0 g
0i
b0 k
1m
b0 n
1o
b0 p
#240000
05
0W
0m
0o
#245000
0!
0"
0#
0%
0'
0+
b0 ,
15
b0 7
b0 :
b111111 ;
b110 H
b10011100001100111 K
0L
0N
1W
b0 Y
b0 [
b0 \
b100 ]
b100 ^
b1001011000 _
b1001011000 `
b0 a
b0 c
b0 e
b0 g
b0 h
0i
b0 k
1m
b10100 n
1o
b0 p
b111000 s
b111000 t
#250000
05
0W
0m
0o
#255000
1#
b111000 $
1%
b111000 &
b0 ,
15
b0 7
b111000 9
b0 :
b0 ;
b10011100001100110 K
1L
b111000 M
1N
b111000 O
1W
b0 Y
b0 [
b1 \
b100 ]
b100 ^
b1001011000 _
b1001011000 `
b0 a
b0 c
b0 e
b0 g
b0 h
0i
b0 k
1m
b0 n
1o
b0 p
#260000
05
0W
0m
0o
#265000
1!
1"
0'
0+
b0 ,
15
b1111 7
b11000 :
b10011100001100101 K
1W
b0 Y
b1 [
b0 \
b100 ]
b100 ^
b1001011000 _
b1001011000 `
b0 a
b0 c
b0 e
b0 g
0i
b0 k
1m
b0 n
1o
b0 p
#270000
05
0W
0m
0o
#275000
0!
0"
0#
0%
0'
0+
b0 ,
15
b0 7
b0 :
b111000 ;
b111 H
b10011100001100100 K
0L
0N
1W
b0 Y
b0 [
b0 \
b100 ]
b100 ^
b1001011000 _
b1001011000 `
b0 a
b0 c
b0 e
b0 g
b0 h
0i
b0 k
1m
b11000 n
1o
b0 p
b111100 u
b10111 v
#280000
05
0W
0m
0o
#285000
1#
b111100 $
b0 ,
15
b0 7
b0 :
b0 ;
b10011100001100011 K
1L
b111100 M
1W
b0 Y
b0 [
b0 \
b100 ]
b100 ^
b1001011000 _
b1001011000 `
b0 a
b0 c
b0 e
b0 g
b0 h
0i
b0 k
1m
b0 n
1o
b0 p
#290000
05
0W
0m
0o
#295000
1%
b10111 &
15
b10111 9
b10011100001100010 K
1N
b10111 O
1W
b0 Y
b0 [
b1 \
b100 ]
b100 ^
b1001011000 _
b1001011000 `
b0 a
b0 c
b0 e
b0 g
0i
b0 k
1m
b0 n
1o
b0 p
#300000
05
0W
0m
0o
#305000
1!
1"
0'
0+
b0 ,
15
b1111 7
b11100 :
b10011100001100001 K
1W
b0 Y
b1 [
b0 \
b100 ]
b100 ^
b1001011000 _
b1001011000 `
b0 a
b0 c
b0 e
b0 g
0i
b0 k
1m
b0 n
1o
b0 p
#310000
05
0W
0m
0o
#315000
0!
0"
0#
0%
0'
0+
b0 ,
15
b0 7
b0 :
b10111 ;
b1000 H
b10011100001100000 K
0L
0N
1W
b0 Y
b0 [
b0 \
b100 ]
b100 ^
b1001011000 _
b1001011000 `
b0 a
b0 c
b0 e
b0 g
b0 h
0i
b0 k
1m
b11100 n
1o
b0 p
b1000000 s
b11111111111111111111111111110111 t
#320000
05
0W
0m
0o
#325000
1#
b1000000 $
1%
b11111111111111111111111111110111 &
b0 ,
15
b0 7
b11111111111111111111111111110111 9
b0 :
b0 ;
b10011100001011111 K
1L
b1000000 M
1N
b11111111111111111111111111110111 O
1W
b0 Y
b0 [
b1 \
b100 ]
b100 ^
b1001011000 _
b1001011000 `
b0 a
b0 c
b0 e
b0 g
b0 h
0i
b0 k
1m
b0 n
1o
b0 p
#330000
05
0W
0m
0o
#335000
1!
1"
0'
0+
b0 ,
15
b1111 7
b100000 :
b10011100001011110 K
1W
b0 Y
b1 [
b0 \
b100 ]
b100 ^
b1001011000 _
b1001011000 `
b0 a
b0 c
b0 e
b0 g
0i
b0 k
1m
b0 n
1o
b0 p
#340000
05
0W
0m
0o
#345000
0!
0"
0#
0%
0'
0+
b0 ,
15
b0 7
b0 :
b11111111111111111111111111110111 ;
b1001 H
b10011100001011101 K
0L
0N
1W
b0 Y
b0 [
b0 \
b100 ]
b100 ^
b1001011000 _
b1001011000 `
b0 a
b0 c
b0 e
b0 g
b0 h
0i
b0 k
1m
b100000 n
1o
b0 p
b1000100 u
b11111111111111111111111111110110 v
#350000
05
0W
0m
0o
#355000
1#
b1000100 $
b0 ,
15
b0 7
b0 :
b0 ;
b10011100001011100 K
1L
b1000100 M
1W
b0 Y
b0 [
b0 \
b100 ]
b100 ^
b1001011000 _
b1001011000 `
b0 a
b0 c
b0 e
b0 g
b0 h
0i
b0 k
1m
b0 n
1o
b0 p
#360000
05
0W
0m
0o
#365000
1%
b11111111111111111111111111110110 &
15
b11111111111111111111111111110110 9
b10011100001011011 K
1N
b11111111111111111111111111110110 O
1W
b0 Y
b0 [
b1 \
b100 ]
b100 ^
b1001011000 _
b1001011000 `
b0 a
b0 c
b0 e
b0 g
0i
b0 k
1m
b0 n
1o
b0 p
#370000
05
0W
0m
0o
#375000
1!
1"
0'
0+
b0 ,
15
b1111 7
b100100 :
b10011100001011010 K
1W
b0 Y
b1 [
b0 \
b100 ]
b100 ^
b1001011000 _
b1001011000 `
b0 a
b0 c
b0 e
b0 g
0i
b0 k
1m
b0 n
1o
b0 p
#380000
05
0W
0m
0o
#385000
0!
0"
0#
0%
0'
0+
b0 ,
15
b0 7
b0 :
b11111111111111111111111111110110 ;
b1010 H
b10011100001011001 K
0L
0N
1W
b0 Y
b0 [
b0 \
b100 ]
b100 ^
b1001011000 _
b1001011000 `
b0 a
b0 c
b0 e
b0 g
b0 h
0i
b0 k
1m
b100100 n
1o
b0 p
b1001000 s
b0 t
#390000
05
0W
0m
0o
#395000
1#
b1001000 $
1%
b0 &
b0 ,
15
b0 7
b0 9
b0 :
b0 ;
b10011100001011000 K
1L
b1001000 M
1N
b0 O
1W
b0 Y
b0 [
b1 \
b100 ]
b100 ^
b1001011000 _
b1001011000 `
b0 a
b0 c
b0 e
b0 g
b0 h
0i
b0 k
1m
b0 n
1o
b0 p
#400000
05
0W
0m
0o
#405000
1!
1"
0'
0+
b0 ,
15
b1111 7
b101000 :
b10011100001010111 K
1W
b0 Y
b1 [
b0 \
b100 ]
b100 ^
b1001011000 _
b1001011000 `
b0 a
b0 c
b0 e
b0 g
0i
b0 k
1m
b0 n
1o
b0 p
#410000
05
0W
0m
0o
#415000
0!
0"
0#
0%
0'
0(
0)
0+
b0 ,
15
b0 7
b0 :
b0 ;
b0 H
b10011100001010110 K
0L
0N
0P
1W
b0 Y
b0 [
b0 \
b100 ]
b100 ^
b1001011000 _
b1001011000 `
b0 a
b0 c
b0 e
b0 g
0i
b0 k
1m
b101000 n
1o
b0 p
b100000 w
b0 x
b11111111111111111111111111111111 y
#420000
05
0W
0m
0o
#425000
1)
b100000 *
b0 ,
15
b0 :
b0 ;
b10011100001010101 K
1Q
b100000 R
1W
b0 Y
b0 [
b10 \
b100 ]
b100 ^
b1001011000 _
b0 a
b0 c
b0 e
b0 g
0i
b0 k
1m
b0 n
1o
b0 p
#430000
05
0W
0m
0o
#435000
0!
0"
1'
0+
b0 ,
15
b0 7
b0 :
b10011100001010100 K
1W
b0 Y
b10 [
b11 \
b100 ]
b100 ^
b1001011000 _
b1001011000 `
b0 a
b0 c
b0 e
b0 g
0i
b0 k
1m
b0 n
1o
b0 p
#440000
05
0W
0m
0o
#445000
0!
0"
0'
1+
b0 ,
15
b0 7
b0 :
b10011100001010011 K
1W
b0 Y
b11 [
b11 \
b100 ]
b100 ^
b1001011000 _
b1001011000 `
b0 a
b0 c
b0 e
b0 g
0i
b0 k
1m
b0 n
1o
b0 p
#450000
05
0W
0m
0o
#455000
1(
15
b10011100001010010 K
1P
1W
b0 Y
b11 [
b0 \
b100 ]
b100 ^
b1001011000 _
b0 a
b0 c
b0 e
b0 g
0i
b0 k
1m
b0 n
1o
b0 p
#460000
05
0W
0m
0o
#465000
0!
0"
0'
0(
0)
0+
b0 ,
15
b0 7
b0 :
b1 H
b10011100001010001 K
0P
0Q
1W
b0 Y
b0 [
b0 \
b100 ]
b100 ^
b1001011000 _
b1001011000 `
b0 a
b0 c
b0 e
b0 g
0i
b0 k
1m
b0 n
1o
b0 p
b100100 w
b11111111111111111111111111110110 x
b11111111111111111111111111111111 y
#470000
05
0W
0m
0o
#475000
1)
b100100 *
b0 ,
15
b100 :
b10011100001010000 K
1Q
b100100 R
1W
b0 Y
b0 [
b10 \
b100 ]
b100 ^
b1001011000 _
b0 a
b0 c
b0 e
b0 g
0i
b0 k
1m
b0 n
1o
b0 p
#480000
05
0W
0m
0o
#485000
0!
0"
1'
0+
b0 ,
15
b0 7
b100 :
b11111111111111111111111111110110 ;
b10011100001001111 K
1W
b0 Y
b10 [
b11 \
b100 ]
b100 ^
b1001011000 _
b1001011000 `
b0 a
b0 c
b0 e
b0 g
b0 h
0i
b0 k
1m
b100 n
1o
b0 p
#490000
05
0W
0m
0o
#495000
0!
0"
0'
1+
b11111111111111111111111111110110 ,
15
b0 7
b100 :
b10011100001001110 K
1W
b0 Y
b11 [
b11 \
b100 ]
b100 ^
b1001011000 _
b1001011000 `
b0 a
b0 c
b0 e
b0 g
0i
b0 k
1m
b100 n
1o
b0 p
#500000
05
0W
0m
0o
#505000
1(
15
b10011100001001101 K
1P
1W
b0 Y
b11 [
b0 \
b100 ]
b100 ^
b1001011000 _
b0 a
b0 c
b0 e
b0 g
0i
b0 k
1m
b100 n
1o
b0 p
#510000
05
0W
0m
0o
#515000
0!
0"
0'
0(
0)
0+
b0 ,
15
b0 7
b0 :
b10 H
b10011100001001100 K
0P
0Q
1W
b0 Y
b0 [
b0 \
b100 ]
b100 ^
b1001011000 _
b1001011000 `
b0 a
b0 c
b0 e
b0 g
0i
b0 k
1m
b100 n
1o
b0 p
b101000 w
b11111111111111111111111111110111 x
b11111111111111111111111111111111 y
#520000
05
0W
0m
0o
#525000
1)
b101000 *
b0 ,
15
b1000 :
b0 ;
b10011100001001011 K
1Q
b101000 R
1W
b0 Y
b0 [
b10 \
b100 ]
b100 ^
b1001011000 _
b0 a
b0 c
b0 e
b0 g
b0 h
0i
b0 k
1m
b0 n
1o
b0 p
#530000
05
0W
0m
0o
#535000
0!
0"
1'
0+
b0 ,
15
b0 7
b1000 :
b11111111111111111111111111110111 ;
b10011100001001010 K
1W
b0 Y
b10 [
b11 \
b100 ]
b100 ^
b1001011000 _
b1001011000 `
b0 a
b0 c
b0 e
b0 g
b0 h
0i
b0 k
1m
b1000 n
1o
b0 p
#540000
05
0W
0m
0o
#545000
0!
0"
0'
1+
b11111111111111111111111111110111 ,
15
b0 7
b1000 :
b10011100001001001 K
1W
b0 Y
b11 [
b11 \
b100 ]
b100 ^
b1001011000 _
b1001011000 `
b0 a
b0 c
b0 e
b0 g
0i
b0 k
1m
b1000 n
1o
b0 p
#550000
05
0W
0m
0o
#555000
1(
15
b10011100001001000 K
1P
1W
b0 Y
b11 [
b0 \
b100 ]
b100 ^
b1001011000 _
b0 a
b0 c
b0 e
b0 g
0i
b0 k
1m
b1000 n
1o
b0 p
#560000
05
0W
0m
0o
#565000
0!
0"
0'
0(
0)
0+
b0 ,
15
b0 7
b0 :
b11 H
b10011100001000111 K
0P
0Q
1W
b0 Y
b0 [
b0 \
b100 ]
b100 ^
b1001011000 _
b1001011000 `
b0 a
b0 c
b0 e
b0 g
0i
b0 k
1m
b1000 n
1o
b0 p
b101100 w
b10111 x
b11111111111111111111111111111111 y
#570000
05
0W
0m
0o
#575000
1)
b101100 *
b0 ,
15
b1100 :
b0 ;
b10011100001000110 K
1Q
b101100 R
1W
b0 Y
b0 [
b10 \
b100 ]
b100 ^
b1001011000 _
b0 a
b0 c
b0 e
b0 g
b0 h
0i
b0 k
1m
b0 n
1o
b0 p
#580000
05
0W
0m
0o
#585000
0!
0"
1'
0+
b0 ,
15
b0 7
b1100 :
b10111 ;
b10011100001000101 K
1W
b0 Y
b10 [
b11 \
b100 ]
b100 ^
b1001011000 _
b1001011000 `
b0 a
b0 c
b0 e
b0 g
b0 h
0i
b0 k
1m
b1100 n
1o
b0 p
#590000
05
0W
0m
0o
#595000
0!
0"
0'
1+
b10111 ,
15
b0 7
b1100 :
b10011100001000100 K
1W
b0 Y
b11 [
b11 \
b100 ]
b100 ^
b1001011000 _
b1001011000 `
b0 a
b0 c
b0 e
b0 g
0i
b0 k
1m
b1100 n
1o
b0 p
#600000
05
0W
0m
0o
#605000
1(
15
b10011100001000011 K
1P
1W
b0 Y
b11 [
b0 \
b100 ]
b100 ^
b1001011000 _
b0 a
b0 c
b0 e
b0 g
0i
b0 k
1m
b1100 n
1o
b0 p
#610000
05
0W
0m
0o
#615000
0!
0"
0'
0(
0)
0+
b0 ,
15
b0 7
b0 :
b100 H
b10011100001000010 K
0P
0Q
1W
b0 Y
b0 [
b0 \
b100 ]
b100 ^
b1001011000 _
b1001011000 `
b0 a
b0 c
b0 e
b0 g
0i
b0 k
1m
b1100 n
1o
b0 p
b110000 w
b111000 x
b11111111111111111111111111111111 y
#620000
05
0W
0m
0o
#625000
1)
b110000 *
b0 ,
15
b10000 :
b0 ;
b10011100001000001 K
1Q
b110000 R
1W
b0 Y
b0 [
b10 \
b100 ]
b100 ^
b1001011000 _
b0 a
b0 c
b0 e
b0 g
b0 h
0i
b0 k
1m
b0 n
1o
b0 p
#630000
05
0W
0m
0o
#635000
0!
0"
1'
0+
b0 ,
15
b0 7
b10000 :
b111000 ;
b10011100001000000 K
1W
b0 Y
b10 [
b11 \
b100 ]
b100 ^
b1001011000 _
b1001011000 `
b0 a
b0 c
b0 e
b0 g
b0 h
0i
b0 k
1m
b10000 n
1o
b0 p
#640000
05
0W
0m
0o
#645000
0!
0"
0'
1+
b111000 ,
15
b0 7
b10000 :
b10011100000111111 K
1W
b0 Y
b11 [
b11 \
b100 ]
b100 ^
b1001011000 _
b1001011000 `
b0 a
b0 c
b0 e
b0 g
0i
b0 k
1m
b10000 n
1o
b0 p
#650000
05
0W
0m
0o
#655000
1(
15
b10011100000111110 K
1P
1W
b0 Y
b11 [
b0 \
b100 ]
b100 ^
b1001011000 _
b0 a
b0 c
b0 e
b0 g
0i
b0 k
1m
b10000 n
1o
b0 p
#660000
05
0W
0m
0o
#665000
0!
0"
0'
0(
0)
0+
b0 ,
15
b0 7
b0 :
b101 H
b10011100000111101 K
0P
0Q
1W
b0 Y
b0 [
b0 \
b100 ]
b100 ^
b1001011000 _
b1001011000 `
b0 a
b0 c
b0 e
b0 g
0i
b0 k
1m
b10000 n
1o
b0 p
b110100 w
b111111 x
b11111111111111111111111111111111 y
#670000
05
0W
0m
0o
#675000
1)
b110100 *
b0 ,
15
b10100 :
b0 ;
b10011100000111100 K
1Q
b110100 R
1W
b0 Y
b0 [
b10 \
b100 ]
b100 ^
b1001011000 _
b0 a
b0 c
b0 e
b0 g
b0 h
0i
b0 k
1m
b0 n
1o
b0 p
#680000
05
0W
0m
0o
#685000
0!
0"
1'
0+
b0 ,
15
b0 7
b10100 :
b111111 ;
b10011100000111011 K
1W
b0 Y
b10 [
b11 \
b100 ]
b100 ^
b1001011000 _
b1001011000 `
b0 a
b0 c
b0 e
b0 g
b0 h
0i
b0 k
1m
b10100 n
1o
b0 p
#690000
05
0W
0m
0o
#695000
0!
0"
0'
1+
b111111 ,
15
b0 7
b10100 :
b10011100000111010 K
1W
b0 Y
b11 [
b11 \
b100 ]
b100 ^
b1001011000 _
b1001011000 `
b0 a
b0 c
b0 e
b0 g
0i
b0 k
1m
b10100 n
1o
b0 p
#700000
05
0W
0m
0o
#705000
1(
15
b10011100000111001 K
1P
1W
b0 Y
b11 [
b0 \
b100 ]
b100 ^
b1001011000 _
b0 a
b0 c
b0 e
b0 g
0i
b0 k
1m
b10100 n
1o
b0 p
#710000
05
0W
0m
0o
#715000
0!
0"
0'
0(
0)
0+
b0 ,
15
b0 7
b0 :
b110 H
b10011100000111000 K
0P
0Q
1W
b0 Y
b0 [
b0 \
b100 ]
b100 ^
b1001011000 _
b1001011000 `
b0 a
b0 c
b0 e
b0 g
0i
b0 k
1m
b10100 n
1o
b0 p
b111000 w
b111000 x
b11111111111111111111111111111111 y
#720000
05
0W
0m
0o
